What You Leave Behind

The Second Coming Part 5

* Faltering: Nozomi collapses under the weight of piloting and Eisheth's haunting. Sasaki is promoted to main pilot. Shinji investigates and discovers Eisheth's interference.  He chooses to help Nozomi.

* Sisters II: Shinji visits Nozomi and gets the real story -- that Hikari did change, and it was Nozomi who felt guilty for not being receptive to that. Shinji has an abbreviated training session with Sasaki, who is obviously shaky.

* Vision III: Sasaki has a shaky debut against the Angels in Vladivostok, accidently injuring friendly Russian forces. Shinji takes some blame, and Rei shows him a vision of the Seven as they prepared to launch the Geofronts, convincing Shinji that he needs to dedicate himself to the cause and, for the moment, put Nozomi aside.

* Burning Mind, Cold Heart: Shinji trains Sasaki hard, and Hikari appeals to him to help Nozomi, which he refuses.  Then, on the way to another attack, Sasaki is ambushed over water. He fights to the end, "inspired" by Shinji's hard-headedness of late, which only compounds the issue as the Eva is lost to the sea.

* Anchor: the Germans bring their Eva over to help while Unit-14 is salvaged. Shinji initially refuses to believe he did anything wrong, but that attitude fails to impress Hikari. Frustrated, he is seen to by Kaworu, who makes no argument at all, choosing to listen rather than lecture the way Rei did. This helps Shinji realize it's Rei who needs guidance, just as much as he does. Based on this, he resolves to go talk to Nozomi.

* Sisters III: Shinji confronts Nozomi, not to ask her to pilot but to ask her to resolve her issues with Hikari.  Nozomi agrees to pilot without agreeing necessarily to make up with Hikari, but Shinji feels she's becoming more receptive.  Rei challenges Shinji on this approach, and he makes clear he thinks she's wrong, too--that this has pained her greatly, yet Rei refuses his offer to help.  Shinji sees Nozomi off to the sea, where the Eva must be piloted and recovered.
(Aoba complains about the futility of it here, somewhere.)

* Threads: Shinji tries to convince Nozomi to reconcile with Hikari before they get started, but Nozomi can't bring herself to do so. Then, the Angels arrive.  Unit-15 is destroyed.  Nozomi fights for her life. Shinji convinces Rei to come to terms with what's been on her mind, and she sacrifices herself to work one last miracle.

----

* Faltering

** Establishing beat: Shinji drawing

Shinji is tired, but to unwind, he tries his hand at drawing. It's a way to bring him closer to Nozomi, and he also can work through the difficult situation they're in. He draws the scene of the seven scientists deciding to liquefy their people to save them all, and wonders over Rei, as well as the other six--any of whom could be the enemy.

** Nozomi in peril

Simulation training begins, and Shinji puts his drawing away.  Nozomi hasn't shown up for simulation training. Shinji goes to track her down.  She answers the door with a sketchbook in hand.  There are bags under her eyes, and even as they talk, she'd drawing:  drawing with the nib of a pencil.  Shinji asks if she's all right, and she insists she is, but she can't quite hold her weight steadily.  He insists she come to the infirmary, but she refuses.  She tries to close the door, but Shinji holds on to it, causing Nozomi to lose her balance and fall.  There, Shinji sees the whole mess of sketches, many with violent lines.  Nozomi is crying, defeated, saying "they" don't get out of her head, even when she dreams.  Taking great pity on her, Shinji carries Nozomi, without resistance, out of the room.

** Aftermath

Nozomi is in the infirmary.  Shinji goes to briefing afterward.  Hyuga relays word of a new Angel movement toward Vladivostok: they will have to get Sasaki ready.  Sasaki is there, saying he'll be ready, but his attitude through this doesn't inspire Shinji's confidence: unlike Nozomi, Sasaki is fearful and obviously uncomfortable.  Asuka sees Shinji after the briefing to give him support: this is a rough business, and something like this was bound to happen.  That doesn't inspire Shinji, though.  Shinji drifts to Nozomi's room to investigate.  The room is a mess, overrun with sketch pages, and he wonders how he could've missed something like this.  Still, he looks through the sketches and finds evidence of Eisheth in Nozomi's drawings.  He runs to the infirmary, but Nozomi is already on the way back home.  He steps out of the buildings to catch the train back to town.

* Sisters II

** At Hikari's

Shinji walks up that familiar gravel road again, finding Hikari at the door. They're meeting a lot, she says, and Shinji says hopefully it will be as positive as last time.  He asks about Nozomi, and Hikari lies, saying she's doing well--she hasn't actually seen Nozomi. Shinji takes this as a false good sign, and he goes up to Nozomi's room, where Kodama is tending to Nozomi. Nozomi is far into space for now, which puzzles Shinji.  He tries talking with Nozomi, having brought her sketchbooks. This gets her to talk and react, though she's more like a little girl trying to shut it out than anything. Shinji keys in on a series of drawings in which Eisheth transforms into Hikari that must've bothered Nozomi, which Nozomi denies, yet Nozomi gets uncharacteristically emotional about all this.

Shinji becomes worried he's pushing too hard, and he relents.  He leaves, with Hikari obviously worried but also unwilling, because Nozomi asked for Kodama, to go see Nozomi.  Frustrated, Shinji calls Nozomi's therapist asking about the relationship between Nozomi and Hikari, whcih the therapist describes as strained on Nozomi's end due to guilt.  This is the first Shinji's heard of it.  The therapist goes to get some more material, and in the interim, Rei interjects: is Shinji trying to get the best pilot back, or is he putting his friendship with Nozomi--who reminds him of himself--over the good of the program?  Shinji insists it's the former, and he tries to speak with Rei more, but she's gone as soon as the therapist is back.

** Portents of Sasaki in battle

Shinji gets back to the base, and Asuka catches him at his office to complain about Sasaki. She says he is indecisive and difficult to work with--yes, even more difficult than Nozomi.  Still, Shinji thanks her for covering for him, and they chat a bit about Nozomi--who is not doing well. Shinji reviews some of the footage between Asuka and Sasaki, and he watches Sasaki hesitate far too long in a simulation to size up a situation, moreover getting defensive and agitated about it after the fact.  Shinji goes to the control room scheduler to plan an extra simulator run, but he finds out there that the control room will be live in the morning: Vladivostok mission has been moved up, and Sasaki is already preparing to go.  Shinji looks at his phone, but he says nothing about how distressed that makes him.

* Vision III 

** Sasaki and Vladivostok

Sasaki is on the way to Vladivostok.  Asuka will be running this show mostly, as she trained with Sasaki most.  Still, Shinji is on duty, and as Sasaki is on the way, Shinji advises him to be confident and decisive.  Hesitation is death in the Eva.  Just listen to Asuka and trust in himself.  Sasaki gives a lukewarm reponse to this: he's trying, but he just doesn't have it in him.

In Vladivostok, the Angels--the Mist and a Quadruped--are attacking military targets: destroying ships, shipyards, harbors, and other industrial targets like rail lines and airfields.  This marks a big change in strategy: the enemy clearly appreciates humanity's ability to resist, and they're making every effort to destroy the instruments of the military-industrial complex, as well as trade.

Sasaki engages the Angels at a port, surrounded by shipping containers.  This gives a claustrophobic feel, as Sasaki cannot see--only feel through vibrations in the ground--the Quadruped at all times.  Russian forces are in the port as well, placing explosives that might be tactically useful in a pinch.  The Mist continues to harass and bother Sasaki with binding tendrils, but it's the Quadruped that is the real danger: it bursts through a set of containers, chomping down on Unit-14's arm.  Sasaki is in great pain, but Asuka asks him to hold fast: the Quadruped has given them an easy way to use the puncture engine.  As it spins up, however, Sasaki panics, flailing about the cargo area.  He knocks cargo containers everywhere, damaging a Russian ship in port.  Still, Asuka gets him to calm down enough to kill the Quadruped.  Again, the Mist flees, but Attention now has to be put on the Russian ship that is sinking in the harbor.  Asuka instructs Sasaki to assist, which he does, but Misato and Hyuga are clearly unimpressed.

** Aftermath

Misato takes Shinji and Asuka aside in her office to enquire about Sasaki's level of readiness.  She points out that Shinji's reports have consistently said Sasaki could be made ready in a pinch.  Shinji stands by those reports, but Misato says that this kid is clearly a bit out of his depth.  He does not seem to have improved since Misato and Hyuga were running the backup pilot program.  Shinji says he's working on it, and Misato says yes, he should be doing that.  He should be running simulations with Sasaki, too, not making Asuka do it.  Shinji says he understands, but Misato clearly doesn't believe this.  She dismisses Asuka.

With just her and Shinji now, Misato asks about him calling up Nozomi's therapist and seeing Nozomi.  Shinji defends this, saying Nozomi is their best pilot--hands down--but Misato points out that's not true right now.  Moreover, it's not his job to fix Nozomi's problems with Hikari.  It would be dangerous if he got too invested.

Shinji points out that Misato got pretty invested by bringing him and Asuka into her own home.  She made them family, and they are that, even to this day.  Misato accepts that's what she did before, and that's why--as family--she cautions Shinji to keep some distance from Nozomi.  Family can't ask one another to take on these kinds of sacrifices, she says. Or at least, no healthy family would.  He needs to help Sasaki now.  Nozomi is in good hands.

Shinji doesn't seem to believe that, but he leaves saying he understands Misato's advice.

** Leadup to vision

Asuka tries to talk to Shinji after this, but he brushes her off a bit, going to hide in his office, clearly stewing over what Misato's asked him to do.  In some frustration, he calls out to Rei--multiple times when she doesn't answer at first.

At last, Rei answers, saying nothing more than that she is here.  Shinji is somewhat angry with her: that she comes and goes whenever she pleases, for instance.  It almost makes him doubt she is Rei and not Lilith, though the more he looks at her, the less he really doubts that, which takes some edge off his anger.  Still, he's frustrated, and he asks if Rei told Misato about him seeing Nozomi and calling the therapist.  Rei answers that the therapist told Misato--still, Rei confirmed this was the case.

Shinji notes that Rei and Misato seem quite close now, and Rei says she asked Misato to take on this duty:  years ago.  Years ago, Shinji points out, Rei could've spoken to him.  Rei reminds that him that speaking to him has a cost, one that the enemy will exact in kind, given time.  That was true then; it's still true now.

Still, that's what bothers Shinji.  Put everything aside for the cause.  They want him to put Nozomi aside.  Rei herself has already put him aside--though Rei protests this interpretation. Still, Rei argues that she has waited a long time to see this through.  She is trying to help Shinji develop the strength to do the same.

Still defiant, Shinji asks what he needs to know, then--what is he missing? Rei asks if he would like to see, and knowing what that leads to, Shinji agrees.

** The vision

Shinji in an elevator in Nerv headquarters.  The other six are there.  They're going all the way down, to Terminal Dogma.  "Hikari" is the first to key in on Shinji's disorientation, asking if he's all right.  Shinji says he's fine, and Hikari seems glad for this.  She mentions that she's been a little worried about him, as well as for Lilith (whom she indicates nonverbally). Shinji asks why, and Hikari declines to elaborate, asking if he would talk to her and then report back, to confirm Hikari's suspicions.

They reach the bottom, and the scientists' reactions to Kaworu's creation--the seed of life--are mixed.  Asuka and Toji find the thing wondrous.  Shinji notes it seems smaller--though maybe that means he's larger--but he doesn't say this aloud.  Nozomi seems turned off by the thing, wondering if it really will be suitable for them for the long haul.  Kaworu begins to explain that its simplified biology compared to then should be easier to maintain.  Rei goes off on her own to explore the terminal dogma complex, which is filled with nooks and crannies.

Shinji goes to her.  He asks her what she thinks of all this, and she admits she is somehwat bothered by it.  They are going to far outlive everyone else.  They're going to be responsible for their people esssentially to the end of time.  She talks of Agrat and how enthusiastic she seems to be, where she herself can't feel that way.  Shinji admits some trepidation himself, and he asks idly what if they didn't go through with it?  What if they just let it all be?  They could die.  Things do die, in time.

Rei seems somewhat aghast at this.  All their people, all the things they did, and he would let it all perish?  Shinji just says he knows it's that or what they're doing.

That seems to change Rei's mind.  Yes, that is so.  And what she's being asked to do is choose between those paths.  She muses that Adam seems to find the lifeless universe outside their world sad, and he wants to change that.  But that's not important to her.  She just wants to know that they will all survive and grow.  And if that means she will be the shepherd of their people, or some fraction thereof, for a long time...maybe that's not so bad.  Shinji points out that, if not for her, some people might not get the chance to live anew.  Rei agrees, and she seems happier for this--happy enough that this moves Shinji.

After getting a bit lost in the twisting tunnels of the Geofront, Shinji makes his way back to the main chamber, and he goes to Hikari, saying that Lilith will probably be fine.  They had a nice talk, and she seems prepared--ready--for what they need to do.  Hikari seems glad for that, saying it's important that they all believe 100% in what they're doing.  It's the only way to save everyone properly--to accomplish something worth doing.

That word--accomplish--gets Shinji's attention, and despite "Hikari's" motherly smile there, Shinji gets a bad chill down his spine.

Before he can follow up, however, Adam asks if they're ready to test the joining.  Lilith is supposed to do this.  She agrees, reluctantly, and she undergoes the joining process--which is visually and audibly painful, something that turns Shinji's stomach.  But when it's done, he can hear Lilith in his mind, saying that it works and she is whole.

He wakes up, in his office.  Rei is there, and Shinji is a bit shaken.  He admits that Rei gave up a lot, but Rei says that isn't so.  That was so, so long ago she may as well not be the same person anymore.  Even so, she asks him to keep going.  She wants him to understand that she needs to keep going, for that mission is all she has left.  Shinji insists that isn't true, and he tries to touch her, but he comes up empty.  She tells him she can't let him, and for that, she is partly alone.  She leaves him to think about what he wants to do going forward, and Shinji feels the silence and emptiness oppressive.

But for Rei's sake, he can try harder.  He can definitely do that.  He wants to be able to touch her when this is all over.

The next morning, he wakes Sasaki personally.  They have more training to do--a lot more--and when Shinji's done with him, Sasaki will be the best pilot ever.

** More training

Shinji works through simulation with Sasaki, against three Angels: the Mist, a Centipede, and a rolling Disc. He trains Sasaki rigorously in tactics without resorting to the puncture engine: the goal is to engage the disc and avoid it, redirecting the Disc into the Mist to disrupt that, but Sasaki gets run over by the Disc and pasted.  He's been doing that a lot.  Shinji rails on him pretty thoroughly: Sasaki needs to pay attention to the Disc's tilt carefully.  Shinji will not be able to help him there.  Then, he needs to book it at full speed to lure the Disc into the Mist.  Again, Sasaki says he understands, although only after some delay.  Shinji takes the time to try to impres upon Sasaki the importance of this training: they need to be their very best, they need to be decisive too, for all humanity is riding on this.  He needs to be decisive and creative.  Make things happen.  Don't wait for Shinji to instruct in every little detail.  Does he understand?  Sasaki says he does, wearily.

They're coming up on the six hour mandatory break, so Shinji lets him go, as it's close to lunchtime.  Sasaki can't wait to get out of there.  Still, Shinji reminds him that they'll be training again immediately after lunch--another six hours.  Sasaki doesn't reply.  Hyuga gives Shinji a curious look on the way out but doesn't comment, which bothers Shinji slightly.

** The phonecall

On the way to lunch, Shinji gets notified by a sergeant that there's a call for him.  He takes it in his office, and it's Hikari: she has some concerns about Nozomi, and she worries that Shinji hasn't called or been by in the last couple days.  Shinji says he's just been a bit busy, trying desperately to get Sasaki up to speed.  Hikari understands, but she urges Shinji to see or talk to Nozomi.  Nozomi doesn't have many friends, and she considers Shinji one.  Shinji says he understands that, and he doesn't want to betray that friendship.  He just...has a lot going on.  He hopes to see Nozomi there and better.  But by that point, it's clear to Hikari that Shinji isn't budging, so she ends the conversation coolly.

** Disaster

Shinji goes over the next couple days of training, seeing some progress in Sasaki, and he insists to the reader that things were improving, that he was doing the right thing.

With that in mind, he had great hopes for Sasaki's second mission: the Chinese island of Shandong.

He speaks with Sasaki throughout the flight, trying to indoctrinate him in Rei's point of view, which Sasaki parrots:  piloting is important.  The world rests on them.  They can afford to give a little right now and then relax afterward.  It's good that Sasaki does this.

But midway through the flight, the mist Angel attacks, along with a horde of Shriekers.  The plane begins to go down.  The control room staff act quickly to summon all the controllers for battle, and Shinji stares open mouthed in shock.

* Anchor

** Sasaki's folly

They start the release procedure.  They want to keep the Eva in the release manifold, so they can buy as much time or distance as possible for a rescue, but shriekers catch onto the release airfoil, and Sasaki, without Shinji's instruction, breaks the airfoil to try to fight them off.  This makes Sasaki sink like a stone, and he desperately tries to use the jetpack to maintain altitude.

Shinji gets on the horn to try to calm Sasaki down, but Sasaki is fighting for his life, not just against the shriekers but the mist Angel, which is smothing him and pushing him to the water.  Sasaki demands that Shinji give him a strategy to kill the mist, even knowing that without identifying the Angel's core, that would be difficult to impossible.  Hyuga tells Shinji they need Sasaki to get to shallower water if at all possible, but Sasaki is bent on fighting: that's what Shinji told him to do, right?  Fight to the end?  Be ready to give himself up at any time? Isn't he not supposed to care if he dies?

Shinji realizes, to his horror, that he has helped make Sasaki this way, and when Sasaki and Unit-14 fall into the water, he knows that things will not get better from here.  He gets up, and he calls for Rei to fix this.  Misato wants that too, but she knows not to ask that of Rei, for Rei promised one miracle only.  Rei refuses, citing that she did that before, and the enemy turned that on them in kind: that's what brought the Mist Angel to them in the first place.  She urges--and hopes--that Misato can find a way to fix this on their own.

So Sasaki sinks, and Shinji's heart sinks with him.

** Kaworu appears

Shinji is angry, very angry--angry in a despondent way.  Sasaki is alive, but time is running out, and while the mist may not be able to get to him under the water, it leaves Japan defenseless.  Rei refuses to help, and she is the one who persuaded him to act this way, to pursue this course.  Shinji mopes about it through the next briefing--the Germans are offering to send their Eva to help, which Misato is considering, but Shinji tunes out most of the rest of the briefing.  Misato goes to him afterward, asking him to keep it together: Sasaki did need to improve, and as far as Rei goes...well, even Misato can't quite defend that.  They need a little help; that much she admits, and Rei is not giving it to them.
[Note: add some material about Japan actually being invaded now.]

Misato feels helpless, and so does Shinji.  He sits in his office and tears up sheets of paper, feeling that the data on them is pointless.  He should start training the next recruit after Sasaki, but that seems utterly unappealing:  the prospect of destroying another life is not one he relishes, and thus, he's doing as much as he can to avoid it.

It's in this state that Kaworu speaks to him, appearing nonchalantly in Shinji's guest chair.  Shinji is bewildered and overjoyed.  "Have you been here the whole time?" he wonders, and Kaworu says this is so; he just needed to look a little harder.  Shinji is at a loss for this, and Kaworu asks if he ever looked to the back of the theater?

That clicks for Shinji.  He has a bunch of questions: Kaworu did this, he and Rei, but Kaworu stops him.  He's not there as Adam.  He's there as Shinji's friend.  Settling down, Shinji admits that he is troubled: he doesn't know what to do.  Rei is asking something of him that seems impossible--no human being seems capable of giving up as much as Rei, and Kaworu, once did.  More than that, even if they try, it seems destructive.

Kaworu says it is destructive--what they themselves once did was destructive.  More likely than not, they gave up too much to try to do too much.

And, in Kaworu's view, this is no easier for Lilith than it is for him.  She needs his friendship as much as Shinji needs hers; she's been alone for a long time.  If they do great things but are all alone for it, what is all of it for?

Shinji agrees, and he thanks Kaworu for the advice.  It's been good to see him.  He's missed Kaworu, and he hopes, when this is over...Kaworu agrees.

Shinji asks one more question, though: why are they enduring this?  Why have the enemy come for Earth now?  Kaworu merely repeats that phrase:  to make sure billions of years of work wasn't for naught--to accomplish something they thought should be done.  Shinji picks up the phrase, saying he thought so, too.

[Kaworu explains plainly this is a stalemate, one agreed upon by Lilith and Eisheth: they are evenly matched and near-infinite in power.  Kaworu likens this to two editors working on a film, each with competing visions.  Lilith and Eisheth are those editors, and so far, they have agreed to let the other make a change by reserving the right to make a similar change later on somewhere else.]

Kaworu disappears when Shinji is looking away, but he feels better about it all.  He calls up Hikari, apologizing for having been short earlier, and he asks to see Nozomi somewhere.  Hikari agrees.

* Sisters III

** Shinji and Nozomi at the ditch

Shinji meets Nozomi where he once did a long time ago: at the side of the stream.  Things have changed a lot in the intervening weeks and months:  flowers that were one in bloom have given way, even though it's still quite warm, and now, even more than before, there are precious few other people in sight, save for a surveillance van that keeps them both safe.
(Shinji might remark about wasabi farms.)

Nozomi sits on the bank of the ditch, drawing.  She notices him, and she asks if he's there to get her to pilot, which he says no.  She's his friend first.  She approves of this, and they sit together.

Shinji looks at her pad.  Her sketches, Shinji feels, lack a little of the emotion that they used to have.  They're clinical and precise, but they don't tell any kind of story or convey any feeling to him.  Nozomi says that's fine: sometimes you just need to hone technique.

But Shinji isn't buying that.  He asks why Nozomi doesn't want to pilot all of a sudden--in spite of his earlier assurances.  She says she just doesn't want to, that the dream she had--even if it involved the enemy--made her realize that.  It doesn't do anything for her.  And that's a little selfish, but she also figures that someone else who actually wants it would probably be better anyway.

What didn't she get out of it?  Nozomi is evasive.  He asks again, noting that he spoke with Eisheth, and she said she pointed something out to Nozomi about believing in something.  What does that have to do with Hikari?

So he asks again, quite bluntly: what's up with her and Hikari?  Nozomi says it's nothing, but Shinji isn't buying that either.  He's been there: piloting to try to appease someone, to try to fill a void.  He absolutely will not let Nozomi go through that and mirror his mistakes.  He assumes Hikari did something to make Nozomi feel guilty about something she shouldn't.  She broke her promise to do better by Nozomi and then blamed Nozomi for it?

But no, says Nozomi.  That's not what happened.  She puts her sketchbook aside, and she explains: it was an autumn day, nominally.  Hikari found out that she'd have to repeat a year of school because of the disruption to their classes after leaving Tokyo-2.  It wasn't something Hikari wanted; she was really angry and upset about it because she thought all the paperwork had been done right to fix this.  Nozomi found Hikari in this state outside, by the mailbox, and just when it seemed like Hikari might push her away again, she didn't: she admitted what was going on.  She trusted Nozomi would be able to help her shoulder the burden.

Nozomi, for her part, did do that.  She said it wasn't Hikari's fault, or even if it was, she'd get through it.  Hikari seemed really grateful for that, but Nozomi...

Nozomi felt it was hollow.  She said what she believed was right, and it didn't really resonate with her as something that had love at heart, something that was really affectionate.  She looked inside herself and didn't find the warmth that she thought should be there, that she expected of herself.

So, she says, Hikari did nothing wrong.  "Neither did you," says Shinji, but Nozomi doesn't believe that.  She admits that it bothers her, and Eisheth...must've seen that in her, somehow.  She pushed that button pretty hard, and it rattled Nozomi a bit.  It's something she wants to fix at some point.  She thought being the Eva pilot would do that, but it didn't.

Shinji argues that being a pilot could never do that.  She needs to talk to Hikari.  Nozomi is non-committal, despite Shinji's urging.  She changes the subject, saying that Shinji's getting better at sketching, judging by his drawings.  Shinji says he has her to thank for that, and he'd like to return the favor, if she's willing.  Nozomi thinks on that, and she gets up to go home, asking him to follow.

[But for now, they need a pilot, right?  Sasaki went and screwed it all up?  She's willing to do that.  She feels good.  And if, in the meantime, that gives other people the chance to figure out what she hasn't, she's fine with that.

It dawns on Shinji that that is why Nozomi pilots; that is why she draws--to evoke the emotions that she knows she should feel but doesn't feel comfortable with in her heart.  But Shinji insists that that's not enough; she needs to do something for herself.  Resolve things with Hikari.  Don't keep her at a distance just because you don't know what to do with her, how to return her affections in a way you both can enjoy, and all that.

Nozomi thinks on this for a time, saying she might like to try.  Shinji considers this a win.]

They walk back to the Horaki home, where Hikari answers the door.  Nozomi asks Shinji to wait at the road for a sec, and she goes up to Hikari.  They stand apart for a bit, talking while Shinji watches.  Hikari asks if Shinji is staying for dinner, but Nozomi says she wants to talk about something else.  They do for a while, and at some point, Hikari touches Nozomi's shoulder warmly, and Nozomi touches Hikari's hand in return.  Shinji's heart is warmed by this.

Nozomi calls for Shinji to stay for dinner, which he accepts.  Shinji catches up to Nozomi, who says that there's still some work to do, but she...has hope, for a change.  And she thinks she can pilot, because now she can pilot for what that is, instead of what she wanted it to be.  Shinji is glad for that, on both counts.

As the girls go to work on dinner, Shinji is visited by Rei.  Rei complains that Shinji is making the same mistakes again, but Shinji is confident: he's not.  It's Rei who's making a mistake. The bond he shares with Nozomi is valuable; so is the bond he shares with her.

Rei insists that she is responsible for all life on earth, more than just him and Nozomi, and that is her first obligation.  Shinji cuts right to it: if that's true, then why did she bother to save him in the first place?  Why did she save him from the assassin's bullet all those weeks ago?

Rei clearly does not want to answer, but at last, she says that he could've proved useful to the cause, and that he has.  Shinji doesn't buy that; "Okay, Ayanami," he says.  "If you say so.  But if you start to think differently, I will still be here."

With that, Rei gives a silent nod, and she disappears when Shinji isn't looking.  That's fine.

Much later, after dinner, they gets back to the base, and Shinji is greeted by Misato at the airfield.  Shinji and Nozomi will need to go, for there are no guarantees long-range communications will be good.  They're going to rescue the Eva, replace Sasaki if necessary due to injury, and try to get the Eva out of the water before it dies.  The clock is ticking.

And Shinji is on board to sign up.

* Threads

** The distpatched rescue: prelude

Shinji, Maya, Aoba, and a small team of other engineers are sent, along with Nozomi, to rescue Unit-14.  They're taken on the destroyer JS Makinami, which escorts USNS Grapple in the Eva rescue operation.  Both ships are heavily armed, expecting heavy resistance from walkers materializing out of the water.  Shinji comments on the perpetual armed patrols that put him on edge.

At mess, the Shinji eats with the civilians and German liaisons.  Shinji initially feels that the mood is pessimistic, as folks are not very joyous or lively.  He asks the table what their chances are, really--given everything they have to do--and the answer all around is "not good."  But the officers don't seem bothered by this.  Shinji files that away.

[Also being towed is Unit-15, the German Eva, which sits inanimate.  The German staff on Makinami eat with them, but they comment on the danger of having a pilot.  If not for that, maybe they wouldn't have to be covering for the Japanese.  Aoba agrees, talking about the inherent destructiveness of the whole endeavor, but he also notes that he's not in charge and whether they use dummy plugs or not is not up to him. He just has to do his job.  Shinji, for his part, doesn't bother to defend it.

There's no point in doing so, in trying to justify what they've done to stay alive.  They just need to go with it, for they're all going into hell the next day.]

[Later that night, Shinji goes to bed.  He's bunking with Aoba.  Aoba is working, albeit as quietly as he can, as Aoba just has a hard, hard time believing that they're going to get out of this.  So he's looking for an answer, a solution.  Shinji, for his part, goes out about the ship to try to rest his own disquieted mind.]

[Aside from this, there's a great sense of unease.  The general feeling is that they're all going to get liquefied.  The German officers surely think so.  The Japanese are having a hard time refuting this point of view.  Some others in the party are getting irritated that there is such defeatist sentiment, but Shinji gets in-between and mediates between the two groups.  He understands being afraid.  He admits they may very well fail.  Maybe this isn't a cause that inspires him with confidence--maybe that's not him--but he's still there.  Someone may ask him for an inspiring word or speech, but he doesn't know how to do that.  He doesn't know what that feels like really.  He's just still there, and he appreciates others who will stand with him.  At that, one of the officers offers to buy him a drink--there's no alcohol aboard, so it's merely a symbolic gesture.  Shinji accepts, despite his reservations about the day to come.]

[Rather, he goes to the communications room and arranges to get Nozomi on the line with Hikari.  The staff are more than happy to do Shinji a favor.  He goes to Nozomi, but she's reluctant.  Can't it wait?  Shinji says no, it can't.  He practically drags her to the communications room, where Nozomi and Hikari make reluctant contact.  Nozomi makes a point to say that she does appreciate what Hikari is doing, which seems to lift Hikari's spirits, but she declines to go into what divides them.  That should be done face-to-face, she argues.  Shinji is unhappy, but a step is a step, and he wonders if he's pushing her fast.]

** Rescue mission

The next day.  Makinami and Grapple arrive on the scene, and Grapple's divers work to raise the Eva.  Shinji waits, having manned a communications station, and it's a great relief to see the Eva raised and the plug ejected, allowing the corpsmen on the scene to recover Sasaki.

But in that moment, he is visited by Eisheth as the veiled stranger.  Eisheth says that this is a desperate, foolish exercise.  They're all endangering themselves in a last-ditch attempt to resist.  Nothing good will come of it, and it is pointless to believe otherwise.  That pointless belief they can do something there is what destroys them--false hope.

But Shinji retorts that it is not false, and he, for one, still dares to accomplish something--something she, he says, must've forgotten a long time ago:  what it means to dare to accomplish something.

At that, Eisheth takes off her hood, confirming Shinji's suspicions in some sense: it's "Hikari" under there.  Shinji says that's not her face, and she says he knows what her true face looks like.  This isn't about looks.  He and Lilith lead humanity toward a painful end.  She asks them to stop this, but Shinji tells her to stop instead.  At that, Eisheth puts her hood on again; her voice turns neutral, and she says that she will show him the pointlessness of their efforts.

On cue, the enemy begin to climb out of the water.  The Mist Angel appears overhead.  The German Eva engages the Mist above, but it's quickly overwhelmed.  Though the Japanese have put out several barges to use as stepping stones, and though the German Eva has a jetpack for aerial mobility, the walkers have started materializing en masse over these barges, breaking them up and sinking them.

Meanwhile, Aoba's team is trying to swap the Eva's core and load Nozomi into Unit-14, which looks pretty worn for wear.  They're undertaking pretty serious "surgery" on the Eva in real time, exposed to air right on the deck, and they're running out of time.  The enemy break into combat, forcing Shinji to take cover as MSDF personnel defend themselves.  Unit-15 is yanked into the air and ripped apart by the Mist, whose body hardens, exposing its core.  It starts to sink the tug as well as the destroyer.

And at that point, Shinji's had enough. He calls on Rei again, but Eisheth sneers that Lilith cannot help him: they are equal in every way.  Rather than demand Rei to do something, he asks calmly, promising to accept whatever she tells him, what she can do.  Rei states that anything she does, Eisheth can do in kind, and she can see no way to let Eisheth retaliate without making things even worse later.

Shinji thought as much, and as the defenders at the combat doors are liquefied, and he begins to resign himself to his fate.  This greatly distresses Rei, but Shinji realizes she's always done what she thought was best, so he's giving up.

But Rei can't accept that. "I didn't endure all this just to lose you," she says, and she touches his shoulder.  She kisses him on the forehead.  Shinji asks what she'll do, and Rei says she'll make sure Eisheth can't retaliate.

The enemy liquefy.  The Angel dies spontaneously.  Shinji is confused and afraid; this drastic step for his sake could be dangerous!  Eisheth, too, insists this is insane--to put her trust in humans this way.

But Rei doesn't care.  For the first time, she seems happy.  She touches him one more time, and she says that she trusts in them because she has seen friendship and love from them.  She knows they'll be all right---the same cannot be said for Eisheth's children.

Shinji looks out the window and sees that the other walkers have dissolved as well.  The day is won.

But Rei and Eisheth are gone, and Shinji cries out for Rei.  He runs out to the ship exterior, but she doesn't answer.

----

This doesn't quite work.  Things are moving too fast just on the start.

In addition, pushing off Nozomi revealing what her deal is with Hikari means that we have absolutely nothing up to the point where Sasaki pilots.


No, let's break with Nozomi freaking out, and then go into Shinji trying to train Sasaki.  This demonstrates Sasaki's ineptitude, and it also gives Shinji an opportunity to worry over (and be affected by) Nozomi.  It's clear his head is not entirely there, so he would ask Asuka to take over.

Make it so Shinji asks Nozomi what's going on and she brushes it off as fatigue and stress, which Shinji doesn't buy, so he goes into Nozomi's room and sees the sketches.  He doesn't get to follow up on this, though, as he calls Nozomi's therapist only for Rei to interrupt, asking if he's working to help Sasaki or merely to help Nozomi.

Shinji goes back to the control room, but Sasaki is done for a few hours, and Asuka is irritated, though a little understanding, that Shinji spent so much time looking after Nozomi.  He reviews some footage afterward of Asuka and Sasaki, and they're not getting along, either.

Feeling guilty, he tries to schedule some more simulation time for the next morning, but Sasaki is already being loaded for an operation in Russia.  This is all they're going to have.

----

* Faltering (Addendum)

(to this point, Shinji has found Nozomi in a bad state)

** Infirmary

Shinji takes Nozomi to the infirmary, where the doctors quickly take care of her and sedate her.  Shinji hangs out outside while the doctors make their determination.  He paces about the outside of the infirmary, feeling helpless.  He bangs his hand on an exposed pipe...and regrets it because that actually stings pretty good.

He's called inside; there's a call for him from Misato.  She asks how they're doing--Nozomi and him.  Nozomi, he can see, is sedated.  He says his state of mind isn't important compared to that.  Misato disagrees, but she says that, if he's up for it, he should get back to the control room.  They have simulator time, and they need to get someone up to speed to replace Nozomi.

Shinji is shocked they'd replace Nozomi so quickly, but Misato says it's a necessary precaution.  Shinji looks longingly back into the infirmary, but he realizes she is right, and he says he'll be up there in a minute.  He leaves his pencil in her hand.

** Control room again

Shinji returns to the control room, with Hyuga saying he's sorry about Nozomi.  Shinji says it's not his fault.

To his surprise, Asuka is there, getting Sasaki up to speed.  She asks how he's doing, and he says he's hanging in there.  He asks about Sasaki, and Asuka says they'd just gone over the training agenda--same as Nozomi was about to do, so Shinji is familiar with it.  He ought to take over and get some time with Sasaki, so he sits down to get to work.

He apologizes to Sasaki for the short notice, and Sasaki says it's not a big deal.  He asks if he's going to really go out there in Nozomi's place, and Shinji says yes, that's likely at this point.  Sasaki is visibly stunned, but Shinji assures him he's been trained and he's prepared--as prepared as Nozomi was when she was selected to pilot.  Sasaki agrees half-hearted, but even so, he seems a little slow on the uptake.  "Okay, so, uh, what do I need to do here?"

Shinji walks him through the nature of the exercise.  They're practicing emergency extraction situations.  In this scenario, the Eva's right arm has been damaged; Sasaki needs to survive to the extraction point and get underground to escape the attackers.  Sasaki understands, and the simulation is run.  The Eva's right arm is damaged, and Unit-14 is one kilometer away from the extraction point: a reverse catapult that will take the Eva underground.  He faces resistance from the Mist Angel as well as walkers, shrikers, and diggers.  The Mist throws tendrils at him, which he has to cut through one-handed, and the shriekers cling to the Eva's face to obscure his vision.  Sasaki panics, asking Shinji what to do.  Shinji has to tell him to try to cut the shriekers off, but by that point, they've gotten through the Eva's armor, damging the head and face.

This is a failure.

Shinji tells him it's okay to take action: rely on Shinji only when necessary.  Sasaki says he understands and that Shinji is right.  They try again.

This time, Sasaki proceeds the same way: cutting through the Mist, and he deals with the shriekers, but there's a new wrinkle: diggers undercut the direct route to the extraction point.  Shinji starts to ask Sasaki to wait, but Sasaki asks how much time they have for extraction--which, admittedly, isn't a lot.  Shinji starts to ask Asuka if she thinks the Eva can jump the gap, but Sasaki is already starting to look for another way around, which just costs time.  By the time Shinji can get him to jump the gap, the extraction point position has been lost, and that's another failure.

Shinji takes a long look at the sketchpad he'd been using.  Asuka jumps in, saying that it just takes time to build synergy and to understand how to work as a team.  Sasaki seems uncertain about when this is supposed to happen.  Shinji, very frustrated, says that it's about trust and working together, and standing by each other whenever there's something wrong (thankfully, he doesn't say this to Sasaki proper, just to the control room).

At that, Asuka asks if he needs to take some time, and Shinji, recognizing he's not in a good state of mind, agrees.  He takes the sketchpad with him.

** Back at the office

Shinji drifts back to his office.  He calls the infirmary, but there's been no change in Nozomi's health.  He goes over footage from all of the recent missions.  There's nothing there.  There's no reason.  There's nothing that explains this.  Nozomi just broke down, and he can't figure out why.

He calls up Nozomi's therapist, telling him that Nozomi's had a breakdown.  The therapist knows, and he seems equally baffled.  Shinji lashes out at him, saying it's his job to avoid this, to prevent something like this.  The therapist doesn't disagree, but his suggestion that Shinji might need some therapy makes Shinji hang up the phone.

Shinji calls up Hikari instead, telling her something happened with Nozomi, and he needs her help.

** Going through Nozomi's room

Shinji meets with Hikari at the train lobby.  He reflects on how he and Hikari haven't always been friends, but through their mutual friends in Asuka, Toji, and now Nozomi, they have grown closer in a way.  Hikari is obviously concerned for Nozomi, but she puts those feelings aside knowing that Shinji is asking her to help figure out what happened and why.  In this mode, she is more "stoic class rep" than anything else, and they share some drive in this way.

They go through Nozomi's room, which is littered with discarded sketches and worn down pencils.  Hikari muses that Nozomi could make a mess sometimes, but this is a bit excessive even for her.  Hikari also observes that Nozomi was prepared for the long haul here.  She guesse that Nozomi really believes in what they're doing.  Shinji asks why, and that Hikari cannot answer.  It's not like her to aspire to be a hero or anything like that--that much Shinji knows well.  But beyond that, Nozomi is a bit of a mystery to both of them.  That is what they share about her, and yet they both enjoy her company, or they want to. 

They set about the work of trying to figure out Nozomi's sketches, but it's not easy: neither of them really knows anything about art, and while Hikari can speculate about, say, the meaning of Nozomi drawing a train passing by their home, she doesn't really know.  It's clear, at this point, that neither of them really knows Nozomi, and this is more about them being able to deal with their pain.  Hikari says that her phone calls with Nozomi have been short.  There's a sense of great pain there, and Shinji admits he didn't see this coming, but he wonders if he should've, or if he'd paid more attention to Nozomi lately compared to, say, Asuka.  Hikari observes that she can't know the answer to that, and Shinji says he knows.  They both have regrets that they can't be absolutely sure about.  That's what makes them fester.

But they press on for a time, searching for something that might not be there.  And then, Hikari freezes: she sees someone who is clearly her in a scene--a movie theater.  Shinji has a chill; he knows that's not her, but it's someone pretending to be her.  He takes the sketch and goes outside, asking for Rei and to confront the enemy.  Rei refuses, saying the last thing he should want is to talk to the enemy.  Moreover, she questions what he's doing: Nozomi is sleeping.  He can't help her, and even if he could, shouldn't he be working with Sasaki?

Hikari opens the door, asking Shinji what's going on, and Rei is gone.

Shinji arranges for Hikari to sleep there, in Nozomi's room, while Nozomi is recovering.  They go to dinner, with Asuka pleased but also a little frayed.  Dealing with Sasaki hasn't been great.  Shinji promises to look over the footage and see what he can do to get up to speed, but it's too late for that: Sasaki is already being loaded for an operation in Vladivostok.  They have to be ready to go bright and early tomorrow.

Shinji realizes Rei was right, to an extent, but he goes inside anyway.  He does have to eat.

(Cut Hikari out of the above; there's nothing useful accomplished by having her there.  Or don't, but have her be distinctly more standoffish about taking care of Nozomi.  We can go back and make her stiffer with respect to Nozomi.  It's hurt her a great deal to have Nozomi withdraw from her, so she too has tried to not get too attached, trying to give Nozomi space.)

(Or rather, the principal emotion we've been channeling is Shinji's frustration--that Nozomi broke down in front of him, that he didn't notice, and that she didn't trust him to confide in him about it.  So he's not just looking to Hikari to figure out Nozomi, but to share in the sentiment that they've been shut out a little bit, at a distance from Nozomi.)

...

* Sisters II

** Sasaki at Vladivostok

Mostly as above, but Shinji hears that Nozomi is awake and disregards Misato's instructions, going to her instead.

** Shinji and Nozomi in the infirmary

Shinji and Nozomi go to the infirmary.  Hikari is visibly stiff again, and they discuss whether to ask her about the drawing.  Hikari says that it may be better if Shinji asks; he has Nozomi's trust, and Hikari asking may just make things worse.  Shinji agrees, but he shows Hikari some sympathy.

They see Nozomi in the infirmary.  She's awake, and she's drawing on the back of a hospital tray with Shinji's pencil.  She seems decently chipper on seeing Shinji, but she stiffens when she sees Hikari.  Hikari asks if she's all right, and Nozomi says she's still a bit tired, but she's doing better.  Docs say she might be able to go home soon.  Hikari says that's good, in a very muted way.

Shinji watches, trying to discern if Nozomi will betray what bothers her, but the two girls carry on very formally.  Nozomi asks about what's been going on, and Hikari explains that Sasaki took over, and he seems to have done all right--not perfectly, but all right.  Nozomi seems a little disbelieving.  Even still, Shinji can't figure out what's between the two of them.

Nozomi catches on that Shinji is not talking, and she asks him what's up.  Shinji just asks what happened to Nozomi.  Nozomi dismisses it as bad dreams.  Lots of Angels have been in her head lately.  Should've just asked for some time off to clear her head.

Shinji and Hikari exchange a glance, and Hikari makes her move to step out, saying she needs to get Nozomi's things together if she's coming back home.  She says she's glad Nozomi is doing well, very formally, and Nozomi returns the gesture, pretending to be uninterested.

Hikari leaves, and Nozomi is not fooled, asking what that was about.  Shinji gets to it: they found the drawings Nozomi left behind.  Nozomi is unhappy about this, saying he didn't need to see, but Shinji tells her to relax.  What she saw wasn't something that came from inside her:  the enemy was trying to mess with her.  That does get Nozomi to relax a bit, knowing it wasn't something that she had worried about all on her own, and that she's not alone.

But Shinji presses, saying that the enemy had taken the form of his father to intimidate him.  It broke him quite a bit; Nozomi remembers, doesn't she?  She does.  So he asks her not to let the enemy have that same power over her:  why does the enemy take the form of Hikari?

Nozomi dismisses it, saying Shinji would not understand, but Shinji asks--begs--Nozomi to try him.  Nozomi asks what kind of person he thinks she is.  He says she's artistic, thoughtful, and brave.  Nozomi brushes that off.  Artistic yes.  Brave?  You can't be brave if you just don't let things faze you.  And thoughtful?  That she agrees with.  There's a lot that goes on up here (she taps her temple).  But that may be all she has to offer--to Shinji, and to Hikari.

Nozomi's doctors step in, noticing her elevated heart rate, and Shinji says that he just doesn't believe that there's nothing Nozomi has to offer beside what's in her head.  If that weren't so, her heart wouldn't be beating so fast right then.  Shinji tells her to get well soon, and Nozomi thanks him for that.

Even so, Shinji is still a bit troubled over this.  He goes to a toilet and looks himself in the mirror, seeing a lot of his younger self in Nozomi.  He washes his face with cold water to try to shock that feeling away, and he sees Rei in the mirror.  She asks why he's not working with Sasaki--and if he's trying to fix himself through Nozomi.  Shinji insists that Nozomi is their best chance, but that doesn't answer Rei's question.  He needs to think about what's important right now, she says.

Shinji challenges her then, asking what it is he doesn't understand, what she wants from him.  Rei says she can show him, and he agrees, finding himself once again in the world of the First Ones.

* Vision III

** Shinji, Lilith, and Eisheth

** Shinji returns, trains Sasaki hard

** Hikari appeals to Shinji to help Nozomi, and he refuses; the next mission is coming up

** Sasaki is shot down over the East China Sea

* Anchor

** Sasaki's folly: Sasaki and Shinji break down, culminating in the Eva being lost

** Kaworu appears: The Germans offer aid; Shinji very depressed, contacted by Kaworu, resolves to see Nozomi again

* Sisters III

** Shinji visits Nozomi, gets the full story, convinces her to pilot and put her issues aside

* Threads

** Rescue prelude

** Rescue

----

A key issue here is why Lilith originally wanted to be part of the Seed of Life project in the first place.  Her personality as Rei is one that is very weary of the obligation she's undertaken, wishing to find release from it in death, and also one that is torn between responsibilities and personal desires---friendship with Shinji, human connection, and so on.

Perhaps the best angle is to emphasize that of bonds.  This is something that Rei has constantly spoken of.  Piloting Eva bound her with others in the program, including Gendo and then later Shinji, and to all people.  Taking on the mantle of Seed of Life could be the same way: a means for her to seek connection, a way to be bound together with the rest of them.  She willingly endures the long night in the hope of building connections with the children she will spawn, to be a part of something.

----

Let's do something more specific for the Sasaki stuff leading up to his sinking.

* The Forge

** More training

Shinji notes that he spent the next two days training Sasaki, and that over those two days, they developed a much better rapport.

We home in on an example of this rapport: Shinji and Sasaki in a simulation.  They face the Mist, the Quadruped, and a rolling Disc.  Shinji repeats a mantra: You chose to be here, so give it your all.  "Who decided you should be here?" he asks Sasaki.  "I did."  "Then what are you going to do?"  "Give everything I've got."  With that mantra in place, they begin.

The Disc rolls through, and Sasaki sidesteps it.  He charges after the Quadruped, which is evasive as the Mist reaches in with tendrils.  Shinji instructs him to cut through and dive at the Quadruped, and Sasaki does so.  Cornered, the Quadruped tries to bite back; it catches Sasaki's left leg painfully.  Shinji reminds him, once again, "Give everything you've got," and Sasaki bears the pain--more like an animal than a human, he fights through the pain and the Mist and Disc's assaults to acivate the puncture engine and kill the Quadruped.  This terminates the simulation.

Shinji is pleased. Sasaki dealt with the pain and the heat of battle well.  Sasaki is clearly worn out, but he's pleased to have Shinji's approval.  Shinji asks the technicians to load up the next program in sequence, but Hyuga reminds him that it's close to lunchtime.  Shinji checks the time and sees that he's right.  They'll have to continue after lunch--to Hyuga's surprise.  Shinji explains that he'd like to run some four-Angel scenarios just in case, which Hyuga thinks is unlikely; there aren't four Angels in all of Asia at this point, and they don't think a single Eva could survive that anyway.  Still, Shinji wants to practice it.  He doesn't want to be caught flat-footed.  Hyuga says that he'll brush up on it, then, and Shinji asks him to do so.

** The phonecall

** Challenge from Asuka

Things progress more or less the same until dinner, where Asuka takes him aside and says they're going out.  Shinji picks up right away that this is probably about Nozomi, but he acquiesces.

They go to a place they're both familiar with: a small, family-run Italian restaurant, run by some Italian ex-pats that are only so fluent in Japanese.  Nevertheless, they've always been nice to Shinji and Asuka, and while well aware of who Shinji and Asuka are, they never ask questions.  They see Shinji and Asuka to their favorite table, which is hidden in a corner and behind a curtain, a place where Shinji and Asuka aren't likely to be recognized.  Asuka and Signora Prigioni talk a good deal about Prigioni's daughter, with Shinji looking on, before they get down to eating.

As they labor over the menu, Shinji asks why Italian right now, and Asuka waxes about how Italian food is homely and good for community building.  It's not fancy like French--at least, not unequivocally so--and it gives an opportunity to talk with old friends, like Prigioni.  Friendships are important, she reminds him.

Shinji finds this funny, considering how isolated Asuka can be sometimes.  This is about Nozomi.

"Well, no shit," says Asuka, laughing a bit.  They get to it: she and Hikari both thought Shinji was Nozomi's friend, and for the last two days, he hasn't even checked in on her, not even for Nozomi to go back home to recuperate.  Shinji justifies his decision: he's got to get Sasaki up to speed; it's important to him, and he hopes Nozomi will still be there when he's finished.  For now, though, they have to give everything they've got, as long as he chooses to be there.

Asuka isn't buying it; she's heard that line before.  Everything they've got for the cause, right?  That's easy to say.  Even that can be self-serving.  She makes the point that, as a younger pilot, she wanted to be the best--better than everyone else--because she felt that meant she would do the best possible job to help defend the planet against the first round of Angels.  She felt that competition would improve her.  Her point: what Shinji's doing with Sasaki--trying to foster an attitude of absolute sacrifice--may be self-serving, too.  Asuka really wanted to feel better than other people, so as to fill the hole in herself.

Shinji says he doesn't want to be better than other people; if someone is more dedicated than him, that's fine.  He just wants to be as dedicated to the cause as he can be, to know he's done all he can do, for when other people sacrifice a lot and he isn't doing as much as he could...that isn't right, is it?

Asuka considers this, and she remarks, "What is as much as you can do?"  To that, Shinji has no answer, but he's saved by Signora Prigioni, who takes their orders: spaghetti with seaweed, and meatballs with rice.  Shinji makes a point to talk with Prigioni about how business is and her hair, which pleases her.  And when Prigioni is gone, Shinji uses this to point out he's doing just fine.  Asuka is unconvinced, but she's glad he's trying, and they hold hands under the table.

** Disaster

...

* Anchor

** Sasaki's folly

They start the release procedure.  They target the island of Yantai Island, the smaller Chinese island next to Shandgong but that is, unfortunately, over a hundred miles out.  Sasaki's job is to glide as much of the distance as possible to as to reduce depth and make for an easier recovery, but that isn't easy:  more shriekers catch onto the release airfoil.  Sasaki tries to fight them off the airfoil, without Hyuga's authorization.  This ruins his glide characteristics.  Unit-14 is going down like a stone.  Shinji tries to get Sasaki to calm down and stay with them, but Sasaki insists there was no other choice.

And to make matters worse, the Mist Angel is there.  It is hard to see at first, against the dark sky, but it's there, and it's trying to smother Sasaki:  it corrodes the remainder of the airfoli, leaving Sasaki helpless to do anything about it.  Sasaki tries to resort to the jetpack mounted on the Eva's back for additional thrust, but everyone knows there's no chance of getting to Yantai Island right now.  The best chance is for the Eva to ditch in as shallow water as possible.

As the control room staff try to bring up oceanographic data to find a good ditching spot, Shinji tells Sasaki to save thrust, but Sasaki again refuses.  He's fighting the Mist.  He expends vast amounts of propellant trying to find the Angel's core, and he slashes mercilessly at the ephemeral enemy.  Shinji repeats the order to stand down and asks why---to what end---Sasaki thinks fighting will do any good.  To that, Sasaki says,

"I'm giving all I've got, right to the end!"

Shinji is floored at this, utterly horrified.  He doesn't say anything as Sasaki's propellant is expended, and the Eva sinks.  It is a small comfort that the Mist can't seem to reach Sasaki in the water, but Sasaki is sinking nonetheless, and he seems stunned, even helpless.  The water impact injures him, causing great pain as he lurches against his restraints.  He's a wounded, damaged animal.

As Hyuga works with the rest of the team to coordinate Eva recovery with the Chinese, Shinji is being eaten alive by his guilt, and he calls for Rei.  Misato intervenes then, saying that they got their one favor from her; it's best not to ask for another.  But Shinji asks anyway.  Sasaki is down there; the Eva is dying down there, and they need her help.  Rei refuses, saying that to help would only make things worse, but Shinji rejects that.  He doesn't *care*.  This is her fault.  She did this.  "I did?" she echoes, in a way that makes painfully clear Shinji did this.  Rei doesn't bother arguing the point further, saying only that she is sorry--in a manner that shows genuine regret--that she cannot do more and actually help them going forward.

So Sasaki sinks, and Shinji's heart sinks with him.

----

Ok, this Kaworu scene needs some work. Let's do it with Eisheth instead. Shinji himself should come to the conclusion that he needs to go back to talk to Nozomi and embrace those bonds  and what's important to him, rather than blindly sacrifice for the sake of the cause.

* Anchor

** (not Kaworu) Eisheth appears

(There should be some talk of involving Nozomi again, since there's no chance of Terada being ready, but Nozomi is right now keeping some distance, and they're not sure they want to get her involved.)

Shinji has just gotten off the phone with Asuka, and Eisheth appears.  She asks Shinji how many times he must subject himself to his own mistake before he learns.  Shinji is immediately hostile, telling her to get out of his office, but Eisheth refuses:  Rei has had her time with him, so now it's her turn.

Shinji is still hostile, saying that she's tormented Nozomi-chan and now him.  "We're not your children," he says.  "Why don't you leave us alone?"

Eisheth is intrigued by this, realizing he's narrowed her down to one of the seven.  "You're not my children," she says, "but look at how you've been raised.  Look at what you do to yourselves.  You destroyed that boy."

"No, you did!" says Shinji.  "You put him in that position!"

But Eisheth says Shinji put those ideas in Sasaki's head. He filled him with high ideals about commitment and belief, things Sasaki could never live up to.

Shinji doesn't want to confront that.  He is still trying to go on the offensive: he accuses Eisheth of being reduced to tormenting people--tormenting him, tormenting Nozomi.  Eisheth says she only pointed out that Nozomi was acting the same way as him: trying to live up to something that only ate away at her and destroyed her.

That makes Shinji think about his conversation with Nozomi and how damaged she was.

Eisheth concludes, saying that they can't hurt themselves in the sea.  Shinji rejects the idea vehemently, but Eisheth persists, saying that he should stop resisting.  They accomplish nothing by destroying themselves.  Shinji keys in on this, but he says nothing at the time.  Eisheth leaves, telling him to think about it.

And Shinji does.  He realizes that he's not alone in this, they need Nozomi, and he'd like to show Eisheth that she's wrong:  not that they haven't been destroying themselves, because they have been, but that they can resist without doing that.  He calls up Hikari.

----

Horaki home location: similar, but perhaps not quite the same as, https://www.google.com/maps/place/4500+Toyoshinaminamihotaka,+Azumino-shi,+Nagano-ken+399-8201,+Japan/@36.3158995,137.9033664,185m/data=!3m2!1e3!4b1!4m5!3m4!1s0x601d6d6d72a5ca39:0xa9694840b456fca0!8m2!3d36.3158995!4d137.9039149

----

An idea:  When Rei decides to engage Eisheth, the whole world around the epicenter "shatters" into images of them in conflict.

----

Let's rethink the early half of Threads.  Nozomi and Hikari need not have another conversation at this juncture.  Instead, the focus should be on Shinji.  Shinji has felt Rei's dedication and tried to make that his own.  He tried to instill that in Sasaki and realized that he overcompensated, damaging Sasaki in the process.  He realizes he may never feel as dedicated to the cause as he likes, but he does believe in it.

And this is his opportunity to show that.  He's on board, and everyone is worried.  Everyone is a little concerned.  In talking to the Germans, as well as the Japanese officers, he should point out that it's okay to have doubts about their success and to be afraid of the consequences, but they're going to try.

----

Nah, the problem is there's no emotional momentum.  Shinji has already figured things out as-written, and as such, we need only go through the motions.

Instead, keep Shinji from coming to a conclusion about how he should conduct himself going forward--not until he sees Rei the last time.  He should insist that Nozomi is important to him without understanding the choice he's made, the direction he wants to go with how he approaches dedication to the cause.

Being on an SDF ship reinforces that, as everyone there--like on the base--is professional and seemingly upbeat.  They emphasize a sense of brotherhood and shared courage, though on probing, Shinji realizes they're all afraid, but they have to be there--certainly since the ship is underway, there's no place to go.  After a while, they just don't think about whether they're giving it their all.  There's work to do, too much to worry about that sort of thing.  This is something Shinji takes notice of.

Then, during the battle, Shinji should implore Rei to feel comfortable in her own skin.  He realizes that she is and has been as afraid that she isn't as committed as the others.  Her remarks about having nothing she can do are hollow, or at least Shinji feels so, but he gives her a chance to show otherwise:  if she can say that straight to his face, he will believe it and accept it.  She can't, though.  Shinji points out that she's done this for longer than he can imagine, and she is still there--still trying.  That counts for something.

And at last, Rei can let go.  She is the mother of all life on Earth, and she embraces that she has worked hard for it, that she has not spared much in pursuit of it, and it's time to move forward rather than dwell on her inadequacies.  She can go forward with taking Eisheth with her, not because she has something to prove to herself but because it's what needs to be done, and she feels very sure of it now.

And BE SUBTLE.  Have Shinji express his faith, his belief that Rei is utterly committed--his way of saying that she need not push herself, that she has nothing to prove to him, nor should she to herself.  Shinji should ask her if there's anything she can do, Rei would say she does not think it wise, and Shinji absolves her.  In doing so, Rei comes to grips with the right thing to do: for Shinji's sake, for all their sakes.

----

* Threads

** Rescue mission

Makinami and Grapple arrive on the scene, and Grapple's equipment and divers work to raise the Eva. Shinji is in the operations room, hooked up to communications to Nozomi.  They watch as the Eva is raised successfully.  It's brought onto the deck of Grapple, where Aoba's team begins work to extract the entry plug and see to Sasaki.

But as they begin work, the enemy attack.  Walkers materialize from the sea and climb onto the deck of Grapple, forcing American security to defend the group.  Nozomi is a sitting duck in the second entry plug, with no visual on the outside world.  Shinji advises her to stay calm, but what's going on out there doesn't look good.

And then the Disc Angel comes.  It flies at a low altitude, and it brings something:  a spiked ring, the Crown of Thorns.

Unit-15 is dispatched to fight the Disc.  Though the disc makes a run at several vessels in the flotilla, Unit-15 is able to fight it off with a combination of jumps and good jetpack use.  Even then, the Germans are watching the Eva's jetpack fuel carefully.  They're not sure how much longer 15 will be able to hold out.

Back on Grapple, the walkers take the Crown of Thorns and, though Nozomi is loaded into the Eva, the walkers manage to attack the Crown to the Eva's head.  Its spikes extend into the Eva's skull, giving the enemy control of the Eva.  The Eva moves on its own, and it leaps into action to knock Unit-15 into the sea, too.  Nozomi is panicked over this, and Shinji is helpless to do anything about it.  Even as he looks to Hy\=uga for an answer, there is nothing forthcoming.

But in this hour, Rei appears to Shinji.  He is surprised, yet a little relieved, and he asks if she's there to do something.  She says she is, but he may not like what it is she's going to do.  She tells him he was right, in a way.  She's been doing this a long time, but she's no longer afraid or uneasy.  She's very sure now, this is what she must do.  Shinji is fearful of what she's talking about.

And Eisheth appears, as the veiled stranger, saying that Rei puts too much trust in them, that she lacks the strength and conviction to lead her children properly.  Her actions are full of false hope, and this is no different.  She says Rei cannot believe that humanity will prevail on their own; the end result will be the same, and she knows that Rei does not want what will result from her choice.

Shinji intervenes, saying that he trusts Rei to do right rather than seek above all else to accomplish something.  She takes off her hood, showing Hikari's face and asking if that's what he expected to see there.  Shinji is stone-faced, and Eisheth shows him the face of the five-eyed giant.  Shinji says neither is her true face, and he knows that.  She is trying to destroy them.  Why?

She says he and Lilith are leading humanity toward a painful, impossible goal, and she will stop them.  She will do everything in her power to show them the pointlessness of their efforts.

But Rei calls to Eisheth, saying she will do no such thing anymore.  Neither of them will interfere anymore.

Shinji realizes that Rei is going to do something drastic, and he appeals to her, but Rei touches him--she kisses him on the forehead, smiling, and thanks him once again.

Then, she raises a hand to Eisheth, and Eisheth blocks.  Their images are scattered about the ship and the ocean, casting freeze-frame looks at their conflict, which is eternal and unending.

The invaders in the control room liquefy; the Disc Angel retreats.  Unit-14 falls inactive on deck of Grapple.  The battle is over.  Shinji is shaken, but he catches an image of Rei looking not to Eisheth but at him, with a smile on her face.

----

Let's figure out a way to do this in real time.

* Threads

** The rescue mission

"Commence lifting procedure."

Shinji is in the operations room of Makinami.  Aoba is on deck of Grapple, part of a great international flotilla to see to the lifting of the Eva.  He narrates the ongoing lifting procedure as Grapple's engineers and divers have attached cables to the Eva down below.

Then, the action begins.  Walkers are rising from the sea.  A watch officer apprises the bridge of the situation, and the captain orders the security precautions to go into effect.  Hyuga has this communicated to the rest of the fleet as well, on Misato's behalf, and Shinji sees security personnel man the deck of Grapple.  Mines go off around the ships, as they are tied to nets, and the explosions sometimes help knock off walkers that were scaling the hull.

So far, though, things are under control.  Unit-14 rises from the ocean, and Shinji checks in with Sasaki, saying he'll be out soon.  Sasaki is grateful for this, as he was starting to feel like a vampire for all the "blood" he's been drinking.  Shinji assures him he'll have a nice bottle of water waiting for him on Grapple.

Now, it's Nozomi's turn: they begin the process of changing the entry plugs, despite the walkers' interference.  Nozomi is bouncing around due to the waves and the manual loading process.  She says she's fine, if uncomfortable.

But things are about to get more uncomfortable.  Misato contacts them saying the Disc is on approach, and it's got something with it.  The Disc flies in, and it dumps and artifact on the deck of Grapple: a heavy, spiked, wooden ring.  It's so heavy that no one on deck can move it, so they start hooking up the crane to try to get rid of it.

As other naval ships fire upon it, the Disc runs over and destroys a small frigate.  Hyuga gives the word to a German Liaison officer, who gives the order in turn to release Unit-15, which is uncovered by tarp on the deck of Makinami, already activated.  It leaps and jumps using jetpacks and floating platforms to keep up with the Disc.

Shinji anxiously pays little attention to that, as Nozomi needs to get into the fray.  Nozomi is loaded into Unit-14, but before they can begin the startup sequence, the deck is overwhlemed by the walkers, who use the crane to attach the crown to Unit-14's head.  Shinji appeals to Nozomi, asking if she's all right; she can feel something invading the Eva, and moreover, the Eva begins to move--even before Aoba has begun the procedures, which they all realize is a horror.  Indeed, Unit-14 begins to engage Unit-15, to the Germans' great chagrin.  As the two fight on a pair of floating platforms, Unit-14 exhibits powers of levitation as well.

Walkers are aboard Makinami; there's gunfire outside, and a walker's pointed fingers go through the metal hatch.  In that moment, Shinji calls upon Rei, asking if there's anything she can do.

She appears, and she says she can. (pick up on line 525, etc.)

----

There's still something about this that is bothersome: Shinji is an obesrver more than a participant.  But that may be unavoidable.  Eisheth has most of the initiative here.
